…
``` r
is_holiday("2018-03-05")
#> [1] TRUE
is_holiday("2018-03-05", zone = "A")
#> [1] FALSE
is_holiday("2018-03-05", zone = "B")
#> [1] TRUE
```

Retrieve all holidays for a year, optional zone and optional type of
holiday:

``` r
get_year_holidays(2018, name = "Vacances d'hiver")
#> # A tibble: 30 x 5
#>    date       vacances_zone_a vacances_zone_b vacances_zone_c nom_vacances
#>  * <date>     <lgl>           <lgl>           <lgl>           <chr>       
#>  1 2018-02-10 TRUE            FALSE           FALSE           Vacances d'…
#>  2 2018-02-11 TRUE            FALSE           FALSE           Vacances d'…
#>  3 2018-02-12 TRUE            FALSE           FALSE           Vacances d'…
#>  4 2018-02-13 TRUE            FALSE           FALSE           Vacances d'…
#>  5 2018-02-14 TRUE            FALSE           FALSE           Vacances d'…
#>  6 2018-02-15 TRUE            FALSE           FALSE           Vacances d'…
#>  7 2018-02-16 TRUE            FALSE           FALSE           Vacances d'…
#>  8 2018-02-17 TRUE            FALSE           TRUE            Vacances d'…
#>  9 2018-02-18 TRUE            FALSE           TRUE            Vacances d'…
#> 10 2018-02-19 TRUE            FALSE           TRUE            Vacances d'…
#> # ... with 20 more rows
```
…
